<?xml version="1.0" encoding="iso-8859-1"?>
<!-- Generator: Adobe Illustrator 19.2.0, SVG Export Plug-In . SVG Version: 6.00 Build 0)  -->
<svg version="1.1" id="Layer_1" xmlns="http://www.w3.org/2000/svg" xmlns:xlink="http://www.w3.org/1999/xlink" x="0px" y="0px"
	 viewBox="0 0 56 56" style="enable-background:new 0 0 56 56;" xml:space="preserve">
<g>
	<circle style="fill:#40BFF5;" cx="28" cy="28" r="28"/>
	<g id="Flat_copy_1_">
		<path style="fill:#FFFFFF;" d="M32.085,15.967c-2.786,1.014-4.546,3.628-4.346,6.489l0.067,1.104l-1.114-0.135
			c-4.055-0.518-7.599-2.275-10.609-5.227l-1.471-1.464l-0.379,1.081c-0.802,2.411-0.289,4.957,1.381,6.67
			c0.892,0.947,0.69,1.081-0.846,0.518c-0.535-0.179-1.003-0.315-1.048-0.248c-0.155,0.158,0.379,2.208,0.802,3.02
			c0.579,1.128,1.76,2.23,3.054,2.885l1.092,0.518L17.375,31.2c-1.247,0-1.293,0.022-1.159,0.496
			c0.445,1.464,2.206,3.02,4.167,3.696l1.381,0.472l-1.203,0.721c-1.782,1.038-3.878,1.623-5.973,1.667
			c-1.002,0.022-1.827,0.113-1.827,0.181c0,0.225,2.719,1.485,4.301,1.983c4.747,1.464,10.386,0.833,14.62-1.668
			c3.009-1.78,6.017-5.318,7.422-8.744c0.759-1.824,1.515-5.16,1.515-6.758c0-1.037,0.067-1.172,1.315-2.411
			c0.736-0.721,1.427-1.509,1.561-1.735c0.224-0.429,0.2-0.429-0.936-0.045c-1.894,0.677-2.162,0.586-1.225-0.428
			c0.69-0.721,1.515-2.028,1.515-2.411c0-0.067-0.334,0.044-0.713,0.248c-0.401,0.224-1.293,0.562-1.962,0.764l-1.203,0.384
			l-1.092-0.744c-0.602-0.405-1.448-0.856-1.894-0.991C34.85,15.562,33.111,15.606,32.085,15.967z"/>
	</g>
</g>
</svg>
