<?xml version="1.0" encoding="iso-8859-1"?>
<!-- Generator: Adobe Illustrator 19.2.0, SVG Export Plug-In . SVG Version: 6.00 Build 0)  -->
<svg version="1.1" id="Layer_1" xmlns="http://www.w3.org/2000/svg" xmlns:xlink="http://www.w3.org/1999/xlink" x="0px" y="0px"
	 viewBox="0 0 56 56" style="enable-background:new 0 0 56 56;" xml:space="preserve">
<g>
	<circle style="fill:#2AB200;" cx="28" cy="28" r="28"/>
	<g>
		<path style="fill:#FCFDFC;" d="M10.102,46.05c0.56-1.666,1.094-3.256,1.629-4.846c0.479-1.423,0.953-2.849,1.442-4.268
			c0.079-0.229,0.055-0.399-0.064-0.608c-5.981-10.473-0.056-23.572,11.767-26.021c9.751-2.02,19.426,4.767,20.836,14.617
			c1.353,9.452-4.764,18.096-14.134,19.894c-3.972,0.762-7.784,0.174-11.382-1.695c-0.253-0.131-0.461-0.154-0.73-0.068
			c-3.002,0.971-6.009,1.931-9.014,2.893C10.363,45.976,10.273,46,10.102,46.05z M14.561,41.664
			c1.822-0.585,3.566-1.142,5.307-1.709c0.221-0.072,0.395-0.082,0.609,0.052c3.264,2.038,6.797,2.707,10.581,2.031
			c7.834-1.4,13.232-9.164,11.819-16.984c-1.897-10.499-13.66-15.62-22.611-9.843c-6.916,4.463-8.785,13.921-4.079,20.676
			c0.157,0.225,0.191,0.411,0.101,0.673C15.71,38.236,15.15,39.917,14.561,41.664z"/>
		<path style="fill:#2AB101;" d="M14.561,41.664c0.589-1.748,1.149-3.428,1.727-5.103c0.09-0.262,0.056-0.449-0.101-0.673
			c-4.706-6.755-2.838-16.213,4.079-20.676c8.952-5.777,20.714-0.656,22.611,9.843c1.413,7.82-3.986,15.584-11.819,16.984
			c-3.783,0.676-7.317,0.007-10.581-2.031c-0.214-0.134-0.389-0.124-0.609-0.052C18.127,40.522,16.383,41.079,14.561,41.664z
			 M19.941,23.005c-0.17,1.22,0.111,2.361,0.664,3.432c0.849,1.644,1.952,3.115,3.211,4.465c0.796,0.854,1.625,1.678,2.628,2.299
			c0.099,0.112,0.221,0.191,0.345,0.274c1.462,0.97,3.106,1.508,4.758,2.036c0.852,0.272,1.715,0.389,2.573,0.135
			c1.351-0.401,2.595-0.967,2.957-2.538c0.097-0.402,0.198-0.802,0.181-1.224c-0.009-0.216-0.089-0.373-0.274-0.466
			c-1.192-0.602-2.379-1.213-3.613-1.725c-0.357-0.148-0.655-0.074-0.885,0.273c-0.415,0.627-0.927,1.179-1.419,1.744
			c-0.1,0.115-0.257,0.309-0.462,0.227c-0.55-0.218-1.094-0.467-1.612-0.737c-0.855-0.447-1.646-1.005-2.341-1.703
			c-0.845-0.849-1.585-1.769-2.217-2.783c-0.226-0.362-0.176-0.65,0.116-0.947c0.258-0.263,0.507-0.542,0.715-0.845
			c0.265-0.386,0.542-0.792,0.345-1.302c-0.125-0.322-0.278-0.633-0.418-0.95c-0.252-0.864-0.65-1.67-0.993-2.498
			c-0.174-0.419-0.477-0.605-0.937-0.548c-0.216,0.027-0.437,0.013-0.656,0.003c-0.484-0.021-0.871,0.172-1.205,0.508
			C20.605,20.935,20.048,21.855,19.941,23.005z"/>
		<path style="fill:#FFFFFF;" d="M36.986,31.418c-1.192-0.602-2.379-1.214-3.613-1.725c-0.357-0.148-0.655-0.074-0.885,0.273
			c-0.415,0.627-0.927,1.179-1.419,1.744c-0.1,0.115-0.257,0.309-0.462,0.227c-0.55-0.218-1.094-0.467-1.612-0.737
			c-0.855-0.447-1.646-1.005-2.341-1.703c-0.845-0.849-1.585-1.769-2.217-2.783c-0.226-0.362-0.176-0.65,0.116-0.947
			c0.258-0.263,0.507-0.542,0.715-0.845c0.265-0.386,0.542-0.792,0.345-1.302c-0.125-0.322-0.278-0.633-0.418-0.95
			c-0.252-0.864-0.65-1.67-0.993-2.498c-0.174-0.419-0.477-0.605-0.937-0.548c-0.216,0.027-0.437,0.013-0.656,0.003
			c-0.484-0.021-0.871,0.172-1.205,0.508c-0.797,0.801-1.354,1.721-1.461,2.872c-0.17,1.219,0.111,2.361,0.664,3.431
			c0.849,1.644,1.952,3.115,3.211,4.465c0.796,0.854,1.625,1.678,2.628,2.299c0.099,0.112,0.221,0.191,0.345,0.274
			c1.462,0.97,3.106,1.508,4.758,2.036c0.852,0.272,1.715,0.389,2.573,0.135c1.351-0.401,2.595-0.967,2.957-2.538
			c0.097-0.402,0.198-0.802,0.181-1.224C37.251,31.667,37.171,31.511,36.986,31.418z"/>
	</g>
</g>
</svg>
