<?xml version="1.0" encoding="utf-8"?>
<!-- Generator: Adobe Illustrator 20.0.0, SVG Export Plug-In . SVG Version: 6.00 Build 0)  -->
<svg version="1.1" id="Layer_1" xmlns="http://www.w3.org/2000/svg" xmlns:xlink="http://www.w3.org/1999/xlink" x="0px" y="0px"
	 viewBox="0 0 46.2 12.1" style="enable-background:new 0 0 46.2 12.1;" xml:space="preserve">
<style type="text/css">
	.st0{fill:#ED534F;}
</style>
<g>
	<path class="st0" d="M3.1,2.8c-1.6,0-2.8,1.1-2.8,2.6v3.6h0.3c0.5,0,0.9-0.4,0.9-1V5.6c0-1.1,0.6-1.8,1.6-1.8c1,0,1.6,0.7,1.6,1.8
		v3.3H5c0.5,0,0.9-0.4,0.9-1V5.3C6,3.9,4.7,2.8,3.1,2.8z"/>
</g>
<g>
	<path class="st0" d="M13.4,5.8c0-1.8-1.3-3.1-3.1-3.1c-1.8,0-3.2,1.3-3.2,3.1c0,1.7,1.5,3.1,3.4,3.1c0.8,0,1.6-0.2,2.1-0.7L12.4,8
		c-0.3-0.3-0.7-0.4-1.1-0.2c-0.3,0.1-0.5,0.2-0.9,0.2c-1,0-1.8-0.6-2.1-1.6L8.3,6.1h5.1V5.8z M8.4,5.2l0.1-0.3
		c0.4-0.7,1-1.1,1.8-1.1c0.8,0,1.4,0.4,1.7,1.1l0.1,0.3H8.4z"/>
</g>
<g>
	<path class="st0" d="M22.1,5.4v3.5h0.3c0.5,0,1-0.5,1-1V5.7c0-1,0.5-1.6,1.4-1.7V2.8C23.2,2.9,22.1,3.9,22.1,5.4z"/>
</g>
<g>
	<path class="st0" d="M29.3,2.8c-0.8,0-1.5,0.5-1.6,0.6l-0.3,0.3V1.1c0-0.5-0.4-0.9-0.9-0.9H26v5.6c0,1.7,1.4,3.1,3.1,3.2
		c0.8,0,1.6-0.3,2.2-0.9c0.6-0.6,0.9-1.4,0.9-2.2C32.2,4.1,30.9,2.8,29.3,2.8z M29.1,7.8c-1,0-1.9-0.8-1.9-1.9c0-1,0.8-1.9,1.9-1.9
		c1,0,1.9,0.8,1.9,1.9C31,6.9,30.2,7.8,29.1,7.8z"/>
</g>
<g>
	<path class="st0" d="M38.2,2.7h-0.3v3.3c0,1.1-0.6,1.8-1.6,1.8c-0.9,0-1.6-0.7-1.6-1.8V3.7c0-0.5-0.4-0.9-0.9-0.9h-0.3v3.6
		c0,1.5,1.2,2.6,2.8,2.6c1.6,0,2.9-1.1,2.9-2.6V3.7C39.1,3.2,38.7,2.7,38.2,2.7z"/>
</g>
<g>
	<path class="st0" d="M19.2,3.3c-0.4-0.3-1-0.5-1.5-0.5c-1.7,0-3,1.4-3,3.1c0,1.8,1.3,3.1,3,3.1c0.6,0,1.2-0.2,1.6-0.6L19.6,8v0.9
		h1.3V3.6C20.3,3.8,19.6,3.7,19.2,3.3z M17.8,7.8c-1,0-1.9-0.9-1.9-1.9c0-1,0.9-1.9,1.9-1.9c1.1,0,1.9,0.8,1.9,1.9
		C19.7,6.9,18.8,7.8,17.8,7.8z"/>
</g>
<g>
	<path class="st0" d="M46,3.7v5c0,0.9-0.3,1.7-0.9,2.2c-0.6,0.6-1.4,0.9-2.2,0.9v-0.4c0-0.3,0.2-0.6,0.5-0.7
		c0.8-0.3,1.3-1.1,1.3-1.9V7.9l-0.4,0.5c-0.2,0.2-0.7,0.5-1.2,0.5c-1.6,0-2.8-1.1-2.8-2.6V2.7h0.3c0.5,0,0.9,0.4,0.9,1v2.4
		c0,1.1,0.6,1.8,1.6,1.8c1,0,1.6-0.7,1.6-1.8V2.7h0.3C45.6,2.7,46,3.2,46,3.7z"/>
</g>
</svg>
