<?xml version="1.0" encoding="utf-8"?>
<!-- Generator: Adobe Illustrator 21.1.0, SVG Export Plug-In . SVG Version: 6.00 Build 0)  -->
<svg version="1.1" id="Layer_1" xmlns="http://www.w3.org/2000/svg" xmlns:xlink="http://www.w3.org/1999/xlink" x="0px" y="0px"
	 viewBox="0 0 364 193" style="enable-background:new 0 0 364 193;" xml:space="preserve">
<style type="text/css">
	.st0{fill:#989798;}
</style>
<g>
	<g>
		<path class="st0" d="M97.3,53.4C91.8,45,82.6,39.9,72.6,39.9h-0.1c-16.2,0-29.5,13.2-29.6,29.4C42.8,85.6,56,98.9,72.3,99h0.1
			c9.4,0,18.3-4.5,23.9-12.1c3.7-5,5.7-11,5.7-17.3v-0.1C102,63.7,100.3,58.2,97.3,53.4z M93.6,69.4c0,11.5-9.4,21-20.9,21.2l-3.5,0
			v-0.3c-10-1.6-17.7-10.2-17.8-20.7c0-5.7,2.1-11,6.1-15c4-4,9.2-6.3,14.9-6.3c11.6-0.1,21.2,9.3,21.3,21V69.4z"/>
	</g>
	<g>
		<path class="st0" d="M145.1,76.6c-0.2,3.8-0.6,7.6-1.3,11.3c-2.1,11-6.8,21.6-13.5,30.7c-0.1,0.1-0.2,0.2-0.3,0.4
			c-0.1,0.2-0.2,0.3-0.3,0.5L76,191.3c-0.3,0.4-0.5,0.6-0.8,0.8l-0.1,0.1c-0.9,0.7-2,1-3.1,0.8c-1.1-0.2-2.1-0.7-2.8-1.6l-53.7-72
			C4.6,105-0.9,87.3,0.1,69.4C2.7,30.5,34.6,0,72.6,0c17.3,0,34.1,6.4,47.3,18.2c3.7,3.3,7.1,6.9,10,10.8c2.9,3.8,5.4,7.8,7.5,12
			h-9.7c-0.7-1.2-1.4-2.4-2.2-3.6c-3.2-4.8-6.9-9.2-11.1-13c-11.6-10.5-26.1-16-41.8-16c-37.5,0-62,31.3-64.1,61.7
			c-0.8,15.9,4.1,31.6,13.7,44.1l50.3,67.3l50.3-67.3c1.4-1.8,2.5-3.5,3.5-5c6.2-9.8,9.8-21.1,10.3-32.7H145.1z"/>
	</g>
	<g>
		<path class="st0" d="M316.1,53.4c-5.5-8.4-14.7-13.5-24.7-13.6h-0.1c-7.9,0-15.2,3-20.8,8.6c-5.6,5.6-8.7,13-8.8,20.9
			c-0.1,16.3,13.1,29.6,29.4,29.7h0.1c9.4,0,18.3-4.5,23.8-12.1c3.7-5,5.7-11,5.7-17.3v-0.1C320.8,63.7,319.2,58.2,316.1,53.4z
			 M312.4,69.4c0,11.5-9.4,21-20.9,21.2l-3.5,0v-0.3c-4.3-0.7-8.3-2.7-11.5-5.8c-4-4-6.3-9.2-6.3-14.9c0-5.7,2.1-11,6.1-15
			c3.9-4,9.2-6.3,14.9-6.3h0.2c11.5,0,21,9.4,21.1,21V69.4z"/>
	</g>
	<g>
		<path class="st0" d="M362.6,87.8c-2.1,11-6.8,21.6-13.5,30.7l-0.3,0.4c-0.1,0.2-0.2,0.3-0.3,0.5l-53.6,71.9
			c-0.3,0.4-0.5,0.6-0.8,0.8l-0.1,0.1c-0.9,0.7-2,1-3.1,0.8c-1.1-0.2-2.1-0.7-2.7-1.6l-33.5-44.9h10.5l26.3,35.2l50.3-67.3
			c1.4-1.8,2.5-3.5,3.5-5c7.4-11.7,11-25.3,10.3-39.3c-0.8-11.4-4.6-22.7-11.1-32.6c-3.2-4.8-6.9-9.2-11.1-13
			c-11.6-10.5-26.1-16-41.8-16c-37.5,0-62.1,31.3-64.1,61.7c-0.7,14.5,3.3,28.8,11.3,40.8h-9.9c-7.2-12.6-10.6-26.9-9.8-41.5
			C221.6,30.5,253.4,0,291.4,0c17.3,0,34.1,6.4,47.3,18.2c3.7,3.3,7.1,6.9,10,10.8c5.2,6.9,9.2,14.5,11.8,22.8
			c1.8,5.7,2.9,11.7,3.3,17.7C364.2,75.6,363.8,81.8,362.6,87.8z"/>
	</g>
	<g>
		<path class="st0" d="M208.6,59.3l0,0.3c0,0.1,0,0.3,0,0.4c0,0.2-0.1,0.3-0.2,0.5l0,0.2c-0.1,0.3-0.2,0.4-0.2,0.5l-0.2,0.2
			c-0.1,0.2-0.3,0.4-0.5,0.5l-34.4,34.4c-1.4,1.4-3.8,1.4-5.2,0c-0.7-0.7-1.1-1.6-1.1-2.6c0-1,0.4-1.9,1.1-2.6L196.1,63h-65
			c-2,0-3.6-1.6-3.6-3.6c0-2,1.6-3.6,3.6-3.6h65L168,27.6c-0.7-0.7-1.1-1.6-1.1-2.6c0-1,0.4-1.9,1.1-2.6c1.4-1.4,3.7-1.4,5.2,0
			l34.6,34.7c0.1,0.1,0.1,0.1,0.2,0.2l0.2,0.4c0,0.1,0.1,0.1,0.1,0.2l0.2,0.6c0,0,0,0.1,0,0.1C208.6,58.9,208.6,59.1,208.6,59.3z"/>
	</g>
	<g>
		<path class="st0" d="M251.3,128.8c0,2-1.6,3.7-3.6,3.7H180l28.2,28.2c0.7,0.7,1.1,1.6,1.1,2.6c0,1-0.4,1.9-1.1,2.6
			c-1.4,1.4-3.8,1.4-5.2,0l-34.4-34.4c-0.2-0.2-0.3-0.3-0.4-0.5l-0.1-0.2c-0.1-0.2-0.2-0.3-0.2-0.4l-0.1-0.3
			c-0.1-0.2-0.1-0.3-0.1-0.4c0-0.2,0-0.3-0.1-0.4l0-0.3c0-0.2,0-0.4,0-0.5l0.2-0.6c0-0.1,0-0.1,0-0.2c0.1-0.1,0.1-0.2,0.2-0.4
			l0.2-0.3c0-0.1,0.1-0.2,0.2-0.3L203,91.8c1.4-1.4,3.8-1.4,5.1,0c0.7,0.7,1.1,1.6,1.1,2.6c0,1-0.4,1.9-1.1,2.6L180,125.1h67.7
			C249.7,125.1,251.3,126.8,251.3,128.8z"/>
	</g>
</g>
</svg>
